{
  "defaultSeverity": "warning",
  "extends": [
    "tslint:recommended"
  ],
  "linterOptions": {
    "exclude": [
      "node_modules/**"
    ]
  },
  "rules": {
    "quotemark": [false, "single"],
	"indent": [false, "spaces", 2],
	"semicolon": [false, "always"],
	"trailing-comma": [false, {"multiline": "never", "singleline": "never"}],
    "interface-name": false,
    "ordered-imports": false,
	"object-literal-sort-keys": false,
	"member-access": false,
    "no-consecutive-blank-lines": false,
	"no-console": false,
	"new-parens": false,
	"no-string-literal": false,
	"no-angle-bracket-type-assertion": false,
	"arrow-parens": false
  }
}
